// Jest Snapshot v1, https://goo.gl/fbAQLP

exports[`components | App | index should render component 1`] = `
<div>
  <div
    class="MuiGrid-root MuiGrid-container MuiGrid-direction-xs-column MuiGrid-align-items-xs-center MuiGrid-justify-xs-center"
  >
    <div
      class="MuiGrid-root makeStyles-marginTop-1 MuiGrid-container MuiGrid-spacing-xs-2 MuiGrid-item MuiGrid-justify-xs-space-evenly MuiGrid-grid-xs-11"
    >
      <div
        class="MuiGrid-root MuiGrid-item MuiGrid-grid-xs-12 MuiGrid-grid-sm-6 MuiGrid-grid-md-4"
      >
        <div
          class="MuiPaper-root MuiCard-root makeStyles-root-107 MuiPaper-elevation6 MuiPaper-rounded"
        >
          <div
            class="MuiCardHeader-root makeStyles-cardHeader-108"
          >
            <div
              class="MuiCardHeader-content"
            >
              <span
                class="MuiTypography-root MuiCardHeader-title MuiTypography-h5 MuiTypography-alignCenter MuiTypography-displayBlock"
              >
                human
              </span>
            </div>
          </div>
          <div
            class="MuiCardActions-root MuiCardActions-spacing"
          >
            <div
              class="MuiGrid-root MuiGrid-container MuiGrid-align-items-xs-center MuiGrid-justify-xs-space-evenly"
            >
              <div
                class="MuiGrid-root makeStyles-innerItemCenter-177 MuiGrid-item MuiGrid-grid-xs-4"
              >
                <button
                  aria-label="delete"
                  class="MuiButtonBase-root MuiIconButton-root"
                  tabindex="0"
                  type="button"
                >
                  <span
                    class="MuiIconButton-label"
                  >
                    <span
                      aria-hidden="true"
                      class="material-icons MuiIcon-root fa fa-hand-paper-o"
                    />
                  </span>
                  <span
                    class="MuiTouchRipple-root"
                  />
                </button>
              </div>
              <div
                class="MuiGrid-root makeStyles-innerItemCenter-177 MuiGrid-item MuiGrid-grid-xs-4"
              >
                <button
                  aria-label="delete"
                  class="MuiButtonBase-root MuiIconButton-root"
                  tabindex="0"
                  type="button"
                >
                  <span
                    class="MuiIconButton-label"
                  >
                    <span
                      aria-hidden="true"
                      class="material-icons MuiIcon-root fa fa-hand-rock-o"
                    />
                  </span>
                  <span
                    class="MuiTouchRipple-root"
                  />
                </button>
              </div>
              <div
                class="MuiGrid-root makeStyles-innerItemCenter-177 MuiGrid-item MuiGrid-grid-xs-4"
              >
                <button
                  aria-label="delete"
                  class="MuiButtonBase-root MuiIconButton-root"
                  tabindex="0"
                  type="button"
                >
                  <span
                    class="MuiIconButton-label"
                  >
                    <span
                      aria-hidden="true"
                      class="material-icons MuiIcon-root fa fa-hand-scissors-o"
                    />
                  </span>
                  <span
                    class="MuiTouchRipple-root"
                  />
                </button>
              </div>
            </div>
          </div>
          <button
            class="MuiButtonBase-root MuiCardActionArea-root makeStyles-cardActionArea-109"
            tabindex="0"
            type="button"
          >
            <div
              class="MuiCardContent-root"
            >
              <div
                class="MuiGrid-root makeStyles-innerItemCenter-203"
              >
                <h1
                  class="MuiTypography-root MuiTypography-h2 MuiTypography-gutterBottom"
                >
                  Play
                </h1>
              </div>
              <div
                class="MuiGrid-root makeStyles-innerItemCenter-204"
              >
                <span
                  aria-hidden="true"
                  class="material-icons MuiIcon-root fas fa-hand-pointer"
                  style="font-size: 150px;"
                />
              </div>
            </div>
            <span
              class="MuiCardActionArea-focusHighlight"
            />
            <span
              class="MuiTouchRipple-root"
            />
          </button>
        </div>
      </div>
      <div
        class="MuiGrid-root MuiGrid-item MuiGrid-grid-xs-12 MuiGrid-grid-sm-6 MuiGrid-grid-md-4"
      >
        <div
          class="MuiPaper-root makeStyles-paperFullSize-2 MuiPaper-outlined MuiPaper-rounded"
        >
          <div
            class="MuiGrid-root makeStyles-root-205 MuiGrid-container"
          >
            <div
              class="MuiGrid-root MuiGrid-item MuiGrid-grid-xs-12"
            >
              <div
                class="MuiPaper-root MuiCard-root MuiPaper-elevation1 MuiPaper-rounded"
              >
                <button
                  class="MuiButtonBase-root MuiCardActionArea-root"
                  tabindex="0"
                  type="button"
                >
                  <div
                    class="MuiGrid-root makeStyles-root-207 MuiGrid-container MuiGrid-align-items-xs-center MuiGrid-justify-xs-center"
                  >
                    <div
                      class="MuiGrid-root makeStyles-innerItemCenter-206 MuiGrid-item MuiGrid-grid-xs-4"
                    >
                      <h6
                        class="MuiTypography-root MuiTypography-h6 MuiTypography-colorPrimary MuiTypography-noWrap"
                      >
                        human
                      </h6>
                      <p
                        class="MuiTypography-root MuiTypography-body1"
                      >
                        0
                      </p>
                    </div>
                    <div
                      class="MuiGrid-root makeStyles-innerItemCenter-206 MuiGrid-item MuiGrid-grid-xs-4"
                    >
                      <h6
                        class="MuiTypography-root MuiTypography-h6 MuiTypography-colorPrimary MuiTypography-noWrap"
                      >
                        Tie
                      </h6>
                      <p
                        class="MuiTypography-root MuiTypography-body1"
                      >
                        0
                      </p>
                    </div>
                    <div
                      class="MuiGrid-root makeStyles-innerItemCenter-206 MuiGrid-item MuiGrid-grid-xs-4"
                    >
                      <h6
                        class="MuiTypography-root MuiTypography-h6 MuiTypography-colorPrimary MuiTypography-noWrap"
                      >
                        computer
                      </h6>
                      <p
                        class="MuiTypography-root MuiTypography-body1"
                      >
                        0
                      </p>
                    </div>
                  </div>
                  <span
                    class="MuiCardActionArea-focusHighlight"
                  />
                  <span
                    class="MuiTouchRipple-root"
                  />
                </button>
              </div>
            </div>
            <div
              class="MuiGrid-root MuiGrid-item MuiGrid-grid-xs-12"
            >
              <div
                class="MuiPaper-root MuiCard-root MuiPaper-elevation1 MuiPaper-rounded"
              >
                <div
                  class="MuiGrid-root makeStyles-root-208 MuiGrid-container"
                >
                  <div
                    class="MuiGrid-root MuiGrid-item MuiGrid-grid-xs-12"
                  >
                    <ul
                      class="MuiList-root makeStyles-rootList-209 MuiList-dense MuiList-padding MuiList-subheader"
                    >
                      <li
                        class="MuiListSubheader-root MuiListSubheader-sticky MuiListSubheader-gutters"
                      >
                        Round 
                         0
                         
                      </li>
                    </ul>
                  </div>
                </div>
              </div>
            </div>
          </div>
        </div>
      </div>
      <div
        class="MuiGrid-root MuiGrid-item MuiGrid-grid-xs-12 MuiGrid-grid-sm-6 MuiGrid-grid-md-4"
      >
        <div
          class="MuiPaper-root MuiCard-root makeStyles-root-107 MuiPaper-elevation6 MuiPaper-rounded"
        >
          <div
            class="MuiCardHeader-root makeStyles-cardHeader-108"
          >
            <div
              class="MuiCardHeader-content"
            >
              <span
                class="MuiTypography-root MuiCardHeader-title MuiTypography-h5 MuiTypography-alignCenter MuiTypography-displayBlock"
              >
                computer
              </span>
            </div>
          </div>
          <div
            class="MuiCardActions-root MuiCardActions-spacing"
          />
          <button
            class="MuiButtonBase-root MuiCardActionArea-root makeStyles-cardActionArea-109"
            tabindex="0"
            type="button"
          >
            <div
              class="MuiCardContent-root"
            >
              <div
                class="MuiGrid-root makeStyles-innerItemCenter-204"
              >
                <span
                  aria-hidden="true"
                  class="material-icons MuiIcon-root fab fa-reddit-alien"
                  style="font-size: 150px;"
                />
              </div>
            </div>
            <span
              class="MuiCardActionArea-focusHighlight"
            />
            <span
              class="MuiTouchRipple-root"
            />
          </button>
        </div>
      </div>
    </div>
  </div>
</div>
`;
